{
  "name": "ProductUnit",
  "fields": [
    {
      "fieldName": "name",
      "fieldType": "String"
    }
  ],
  "relationships": [],
  "changelogDate": "20200824070208",
  "entityTableName": "product_unit",
  "dto": "mapstruct",
  "pagination": "pagination",
  "service": "serviceImpl",
  "jpaMetamodelFiltering": true,
  "fluentMethods": true,
  "readOnly": false,
  "embedded": false,
  "clientRootFolder": "",
  "applications": ["ecomsql", "ecomsqlClient"]
}
