{
  "name": "PurchaseOrder",
  "fields": [
    {
      "fieldName": "code",
      "fieldType": "String",
      "javadoc": "code"
    },
    {
      "fieldName": "total",
      "fieldType": "Double",
      "javadoc": "total"
    },
    {
      "fieldName": "created",
      "fieldType": "ZonedDateTime",
      "javadoc": "create date"
    }
  ],
  "relationships": [
    {
      "relationshipType": "one-to-many",
      "otherEntityName": "orderProductLine",
      "otherEntityRelationshipName": "purchaseOrder",
      "relationshipName": "productLine"
    }
  ],
  "changelogDate": "20200821071818",
  "javadoc": "The user created purchase order.",
  "entityTableName": "purchase_order",
  "dto": "mapstruct",
  "pagination": "pagination",
  "service": "serviceImpl",
  "jpaMetamodelFiltering": true,
  "fluentMethods": true,
  "readOnly": false,
  "embedded": false,
  "clientRootFolder": "",
  "applications": ["ecomsql", "ecomsqlClient"]
}
